^C:\USERS\WOBO0\DESKTOP\ZADANIE 2\SZABLON\RELEASE\MAIN.OBJ
/OUT:"C:\USERS\WOBO0\DESKTOP\ZADANIE 2\RELEASE\SZABLON.EXE" /NOLOGO /LIBPATH:.\LIB GLEW32.LIB "SFML-WINDOW.LIB" "SFML-GRAPHICS.LIB" "SFML-SYSTEM.LIB" OPENGL32.LIB ASSIMP.LIB KERNEL32.LIB USER32.LIB GDI32.LIB WINSPOOL.LIB COMDLG32.LIB ADVAPI32.LIB SHELL32.LIB OLE32.LIB OLEAUT32.LIB UUID.LIB ODBC32.LIB ODBCCP32.LIB /MANIFEST /MANIFESTUAC:"level='asInvoker' uiAccess='false'" /manifest:embed /Debug /PDB:"C:\USERS\WOBO0\DESKTOP\ZADANIE 2\RELEASE\SZABLON.PDB" /OPT:REF /OPT:ICF /LTCG:incremental /TLBID:1 /DYNAMICBASE /NXCOMPAT /IMPLIB:"C:\USERS\WOBO0\DESKTOP\ZADANIE 2\RELEASE\SZABLON.LIB" /MACHINE:X86 /SAFESEH RELEASE\MAIN.OBJ
^C:\USERS\WOBO0\DESKTOP\ZADANIE 1\SZABLON\RELEASE\MAIN.OBJ
/OUT:"C:\USERS\WOBO0\DESKTOP\ZADANIE 1\RELEASE\SZABLON.EXE" /NOLOGO /LIBPATH:.\LIB GLEW32.LIB "SFML-WINDOW.LIB" "SFML-GRAPHICS.LIB" "SFML-SYSTEM.LIB" OPENGL32.LIB ASSIMP.LIB KERNEL32.LIB USER32.LIB GDI32.LIB WINSPOOL.LIB COMDLG32.LIB ADVAPI32.LIB SHELL32.LIB OLE32.LIB OLEAUT32.LIB UUID.LIB ODBC32.LIB ODBCCP32.LIB /MANIFEST /MANIFESTUAC:"level='asInvoker' uiAccess='false'" /manifest:embed /Debug /PDB:"C:\USERS\WOBO0\DESKTOP\ZADANIE 1\RELEASE\SZABLON.PDB" /SUBSYSTEM:CONSOLE /OPT:REF /OPT:ICF /LTCG:incremental /TLBID:1 /DYNAMICBASE /NXCOMPAT /IMPLIB:"C:\USERS\WOBO0\DESKTOP\ZADANIE 1\RELEASE\SZABLON.LIB" /MACHINE:X86 /SAFESEH RELEASE\MAIN.OBJ
